{
  "id": "260950d0.d9f6b",
  "type": "subflow",
  "name": "Send Customers to Destination",
  "info": "",
  "in": [
    {
      "x": 58.84538269042969,
      "y": 77.64689254760742,
      "wires": [
        {
          "id": "c09e16f.f3f61e8"
        }
      ]
    }
  ],
  "out": [
    {
      "x": 880.8694171905518,
      "y": 69.74213027954102,
      "wires": [
        {
          "id": "c844e7f9.37bb18",
          "port": 0
        },
        {
          "id": "fe3f4584.01c0b8",
          "port": 0
        }
      ]
    }
  ],
  "flow": [
    {
      "id": "c09e16f.f3f61e8",
      "type": "function",
      "z": "260950d0.d9f6b",
      "name": "Set last item",
      "func": "msg.payload.rows[msg.payload.rows.length - 1].last = true;\n\nreturn msg;",
      "outputs": 1,
      "noerr": 0,
      "x": 217.41680908203125,
      "y": 77.64689636230469,
      "wires": [
        [
          "dc554037.23aac"
        ]
      ]
    },
    {
      "id": "dc554037.23aac",
      "type": "switch",
      "z": "260950d0.d9f6b",
      "name": "Select Destination",
      "property": "destination",
      "propertyType": "msg",
      "rules": [
        {
          "t": "eq",
          "v": "sql",
          "vt": "str"
        },
        {
          "t": "else"
        }
      ],
      "checkall": "true",
      "outputs": 2,
      "x": 398.33338165283203,
      "y": 77.85713386535645,
      "wires": [
        [
          "fe3f4584.01c0b8"
        ],
        [
          "c844e7f9.37bb18"
        ]
      ]
    },
    {
      "id": "c844e7f9.37bb18",
      "type": "subflow:811e5319.7ee1b",
      "z": "260950d0.d9f6b",
      "name": "",
      "x": 673.7382049560547,
      "y": 95.35716438293457,
      "wires": [
        []
      ]
    },
    {
      "id": "fe3f4584.01c0b8",
      "type": "subflow:7274a130.8d8b6",
      "z": "260950d0.d9f6b",
      "name": "",
      "x": 664.6409454345703,
      "y": 52.06949329376221,
      "wires": [
        []
      ]
    }
  ]
}