{
  "id": "260950d0.d9f6b",
  "type": "subflow",
  "name": "Send Objects to Destination",
  "info": "",
  "in": [
    {
      "x": 58.84538269042969,
      "y": 77.64689254760742,
      "wires": [
        {
          "id": "c09e16f.f3f61e8"
        }
      ]
    }
  ],
  "out": [
    {
      "x": 1098.4408740997314,
      "y": 89.7421293258667,
      "wires": [
        {
          "id": "c844e7f9.37bb18",
          "port": 0
        },
        {
          "id": "fe3f4584.01c0b8",
          "port": 0
        },
        {
          "id": "f02d780b.0fd288",
          "port": 0
        }
      ]
    }
  ],
  "flow": [
    {
      "id": "c09e16f.f3f61e8",
      "type": "function",
      "z": "260950d0.d9f6b",
      "name": "Set last item",
      "func": "msg.payload.rows[msg.payload.rows.length - 1].last = true;\n\nreturn msg;",
      "outputs": 1,
      "noerr": 0,
      "x": 217.41680908203125,
      "y": 77.64689636230469,
      "wires": [
        [
          "dc554037.23aac"
        ]
      ]
    },
    {
      "id": "dc554037.23aac",
      "type": "switch",
      "z": "260950d0.d9f6b",
      "name": "Select Destination",
      "property": "destination",
      "propertyType": "msg",
      "rules": [
        {
          "t": "eq",
          "v": "sql",
          "vt": "str"
        },
        {
          "t": "else"
        }
      ],
      "checkall": "true",
      "outputs": 2,
      "x": 398.33338165283203,
      "y": 77.85713386535645,
      "wires": [
        [
          "fe3f4584.01c0b8"
        ],
        [
          "2750223.fd8afde"
        ]
      ]
    },
    {
      "id": "c844e7f9.37bb18",
      "type": "subflow:811e5319.7ee1b",
      "z": "260950d0.d9f6b",
      "name": "",
      "x": 891.3096694946289,
      "y": 138.21430587768555,
      "wires": [
        []
      ]
    },
    {
      "id": "fe3f4584.01c0b8",
      "type": "subflow:7274a130.8d8b6",
      "z": "260950d0.d9f6b",
      "name": "",
      "x": 882.21240234375,
      "y": 72.06949234008789,
      "wires": [
        []
      ]
    },
    {
      "id": "2750223.fd8afde",
      "type": "switch",
      "z": "260950d0.d9f6b",
      "name": "Which object?",
      "property": "syncObject",
      "propertyType": "msg",
      "rules": [
        {
          "t": "else"
        },
        {
          "t": "eq",
          "v": "order",
          "vt": "str"
        }
      ],
      "checkall": "true",
      "outputs": 2,
      "x": 620.1428680419922,
      "y": 164.28571701049805,
      "wires": [
        [
          "c844e7f9.37bb18"
        ],
        [
          "f02d780b.0fd288"
        ]
      ]
    },
    {
      "id": "cd40137.f32bff",
      "type": "comment",
      "z": "260950d0.d9f6b",
      "name": "customers",
      "info": "",
      "x": 677.1428298950195,
      "y": 110.0000069141388,
      "wires": []
    },
    {
      "id": "7bc501de.843b",
      "type": "comment",
      "z": "260950d0.d9f6b",
      "name": "orders",
      "info": "",
      "x": 668.7142639160156,
      "y": 220.00001454353333,
      "wires": []
    },
    {
      "id": "f02d780b.0fd288",
      "type": "subflow:44de1733.bb21e8",
      "z": "260950d0.d9f6b",
      "x": 887.8571548461914,
      "y": 204.2857083082199,
      "wires": [
        []
      ]
    }
  ]
}