{
  "id": "28cf561f.d730aa",
  "type": "subflow",
  "name": "Updates Objects (Destination)",
  "info": "",
  "in": [
    {
      "x": 41.23819351196289,
      "y": 65.17861068248749,
      "wires": [
        {
          "id": "9ce00511.631ff8"
        }
      ]
    }
  ],
  "out": [
    {
      "x": 907.2107963562012,
      "y": 121.91674506664276,
      "wires": [
        {
          "id": "227ca558.dd835a",
          "port": 0
        },
        {
          "id": "caa69240.35597",
          "port": 0
        },
        {
          "id": "c117e311.3ee82",
          "port": 0
        }
      ]
    }
  ],
  "flow": [
    {
      "id": "9ce00511.631ff8",
      "type": "switch",
      "z": "28cf561f.d730aa",
      "name": "Select Destination",
      "property": "destination",
      "propertyType": "msg",
      "rules": [
        {
          "t": "eq",
          "v": "sql",
          "vt": "str"
        },
        {
          "t": "else"
        }
      ],
      "checkall": "true",
      "outputs": 2,
      "x": 193.7737274169922,
      "y": 65.92451274394989,
      "wires": [
        [
          "227ca558.dd835a"
        ],
        [
          "283ae3ae.d7c51c"
        ]
      ]
    },
    {
      "id": "caa69240.35597",
      "type": "subflow:811e5319.7ee1b",
      "z": "28cf561f.d730aa",
      "name": "",
      "x": 686.7500152587891,
      "y": 126.28168475627899,
      "wires": [
        []
      ]
    },
    {
      "id": "227ca558.dd835a",
      "type": "subflow:7274a130.8d8b6",
      "z": "28cf561f.d730aa",
      "name": "",
      "x": 677.6527481079102,
      "y": 60.136871218681335,
      "wires": [
        []
      ]
    },
    {
      "id": "283ae3ae.d7c51c",
      "type": "switch",
      "z": "28cf561f.d730aa",
      "name": "Which object?",
      "property": "syncObject",
      "propertyType": "msg",
      "rules": [
        {
          "t": "else"
        },
        {
          "t": "eq",
          "v": "order",
          "vt": "str"
        }
      ],
      "checkall": "true",
      "outputs": 2,
      "x": 415.58321380615234,
      "y": 152.3530958890915,
      "wires": [
        [
          "caa69240.35597"
        ],
        [
          "c117e311.3ee82"
        ]
      ]
    },
    {
      "id": "a33b6025.5cc4a",
      "type": "comment",
      "z": "28cf561f.d730aa",
      "name": "customers",
      "info": "",
      "x": 472.5831756591797,
      "y": 98.06738579273224,
      "wires": []
    },
    {
      "id": "c117e311.3ee82",
      "type": "subflow:44de1733.bb21e8",
      "z": "28cf561f.d730aa",
      "name": "",
      "x": 683.2975006103516,
      "y": 192.35308718681335,
      "wires": [
        []
      ]
    },
    {
      "id": "a206e0ea.5df92",
      "type": "comment",
      "z": "28cf561f.d730aa",
      "name": "orders",
      "info": "",
      "x": 464.1546096801758,
      "y": 208.06739342212677,
      "wires": []
    }
  ]
}