{
  "id": "44de1733.bb21e8",
  "type": "subflow",
  "name": "Update Orders (Salesforce)",
  "info": "",
  "in": [
    {
      "x": 48.309547424316406,
      "y": 53.10716438293457,
      "wires": []
    }
  ],
  "out": [
    {
      "x": 605.9166679382324,
      "y": 52.511916160583496,
      "wires": []
    }
  ],
  "flow": [
    {
      "id": "fefd1448.0102e8",
      "type": "subflow:3b982519.c467da",
      "z": "44de1733.bb21e8",
      "name": "",
      "x": 224.99999618530273,
      "y": 213.33333110809326,
      "wires": [
        [
          "a3e4d165.5c1b3"
        ]
      ]
    },
    {
      "id": "a3e4d165.5c1b3",
      "type": "function",
      "z": "44de1733.bb21e8",
      "name": "Get Order & add ID",
      "func": "msg.order.customer_id = msg.payload;\nmsg.payload = msg.order;\nreturn msg;",
      "outputs": 1,
      "noerr": 0,
      "x": 471.5,
      "y": 214.3333225250244,
      "wires": [
        [
          "41510865.beaef8"
        ]
      ]
    },
    {
      "id": "41510865.beaef8",
      "type": "function",
      "z": "44de1733.bb21e8",
      "name": "For-each order (series)",
      "func": "\nif (!msg.orders) {\n    \n    if (!Array.isArray(msg.payload.rows)) {\n        msg.payload.rows = [msg.payload.rows];\n    }\n    \n    msg.orders = msg.payload;\n    msg.iteration = 0;\n}\n\nif (msg.iteration < msg.orders.rows.length) {\n    msg.payload = msg.orders.rows[msg.iteration];\n    msg.order = msg.payload;\n    msg.iteration++;\n    return [msg, null];\n}\nelse {\n    msg.payload = msg.orders;\n    return [null, msg];\n}\n\n\n",
      "outputs": "2",
      "noerr": 0,
      "x": 174.48803329467773,
      "y": 274.4285583496094,
      "wires": [
        [
          "fefd1448.0102e8"
        ],
        []
      ]
    },
    {
      "id": "b7e04783.481fb8",
      "type": "comment",
      "z": "44de1733.bb21e8",
      "name": "Customer Look-up slows down import & not sure if its required - have left flow just in case",
      "info": "",
      "x": 386.5118980407715,
      "y": 164.666654586792,
      "wires": []
    }
  ]
}