{
  "type": "tab",
  "id": "474aa5cd.b8b55c",
  "label": "Administration",
  "flow": [
    {
      "id": "c5d39515.3a2c68",
      "type": "comment",
      "z": "474aa5cd.b8b55c",
      "name": "Initial Setup: should be run when connecting to a new environment or to re-import all records",
      "info": "",
      "x": 351,
      "y": 67,
      "wires": []
    },
    {
      "id": "5dd3a7c1.a22c58",
      "type": "inject",
      "z": "474aa5cd.b8b55c",
      "name": "Initial Setup MSSQL",
      "topic": "",
      "payload": "",
      "payloadType": "str",
      "repeat": "",
      "crontab": "",
      "once": false,
      "x": 136.23810195922852,
      "y": 115.66666984558105,
      "wires": [
        [
          "f13bb15c.0ec45"
        ]
      ]
    },
    {
      "id": "d049144a.2fb6e8",
      "type": "MSSQL",
      "z": "474aa5cd.b8b55c",
      "mssqlCN": "57b67e7.fa8498",
      "name": "Create Metadata Table",
      "query": "CREATE TABLE CBRImportMetadata (LastSuccessDate varchar(25), ResumeStartDate varchar(25), ResumeOffset int, CheckedCount int, UpdatedCount int);\n\nINSERT INTO CBRImportMetadata (ResumeOffset,CheckedCount,UpdatedCount) VALUES (0,0,0) ;",
      "outField": "payload",
      "x": 590.0476455688477,
      "y": 115.66668701171875,
      "wires": [
        [
          "9f784653.6087b8"
        ]
      ]
    },
    {
      "id": "f13bb15c.0ec45",
      "type": "MSSQL",
      "z": "474aa5cd.b8b55c",
      "mssqlCN": "57b67e7.fa8498",
      "name": "Drop Metadata Table",
      "query": "IF (EXISTS (SELECT * \n                 FROM INFORMATION_SCHEMA.TABLES \n                 WHERE TABLE_NAME = 'CBRImportMetadata'))\nBEGIN\n    DROP TABLE CBRImportMetadata;\nEND\n\n",
      "outField": "payload",
      "x": 363.3809509277344,
      "y": 115.90475940704346,
      "wires": [
        [
          "d049144a.2fb6e8"
        ]
      ]
    },
    {
      "id": "dd81970f.227e68",
      "type": "http in",
      "z": "474aa5cd.b8b55c",
      "name": "",
      "url": "/report",
      "method": "get",
      "swaggerDoc": "",
      "x": 118.9524438040599,
      "y": 525.6190169198173,
      "wires": [
        [
          "da927227.256d9"
        ]
      ]
    },
    {
      "id": "3b62b537.c49d4a",
      "type": "http response",
      "z": "474aa5cd.b8b55c",
      "name": "",
      "x": 635.5238399505615,
      "y": 526.619091306414,
      "wires": []
    },
    {
      "id": "e8108694.17ef78",
      "type": "inject",
      "z": "474aa5cd.b8b55c",
      "name": "Initial Setup Salesforce",
      "topic": "",
      "payload": "",
      "payloadType": "str",
      "repeat": "",
      "crontab": "",
      "once": false,
      "x": 144.28571319580078,
      "y": 187.14285278320312,
      "wires": [
        [
          "88e1e826.771e18",
          "5c63376a.a39cc8"
        ]
      ]
    },
    {
      "id": "262a74b3.d9d58c",
      "type": "subflow:b2b8b80b.4d4748",
      "z": "474aa5cd.b8b55c",
      "name": "",
      "x": 624.2856903076172,
      "y": 187.99999618530273,
      "wires": [
        [
          "88c412d7.773bf"
        ]
      ]
    },
    {
      "id": "88e1e826.771e18",
      "type": "function",
      "z": "474aa5cd.b8b55c",
      "name": "Reset RetailOS Metadata",
      "func": "msg.payload =  {\n    completionDate : \"2015-12-01T16:02:11.878Z\",\n    offset : 0,\n    startDate : null,\n    totalRecords : 0,\n    totalModified : 0\n};\n\nmsg.sourceSystem = 'retailos';\n\nreturn msg;",
      "outputs": 1,
      "noerr": 0,
      "x": 384,
      "y": 188,
      "wires": [
        [
          "262a74b3.d9d58c"
        ]
      ]
    },
    {
      "id": "5c63376a.a39cc8",
      "type": "function",
      "z": "474aa5cd.b8b55c",
      "name": "Reset SQL Metadata",
      "func": "msg.payload =  {\n    completionDate : \"2015-12-01T16:02:11.878Z\",\n    offset : 0,\n    startDate : null,\n    totalRecords : 0,\n    totalModified : 0\n};\n\nmsg.sourceSystem = 'sql';\n\nreturn msg;",
      "outputs": 1,
      "noerr": 0,
      "x": 373.4285888671875,
      "y": 231.4285650253296,
      "wires": [
        [
          "262a74b3.d9d58c"
        ]
      ]
    },
    {
      "id": "27d1c8ce.d82e38",
      "type": "template",
      "z": "474aa5cd.b8b55c",
      "name": "Report Page",
      "field": "payload",
      "fieldType": "msg",
      "format": "handlebars",
      "template": "\n<p>\n    <h2>Results of Last Run</h2>\n</p>\n<p>\n{{lastReport}}\n</p>\n<p>\n    <h2>Log</h2> \n</p> <p>\n {{#log}}<p>{{.}}</p>{{/log}}\n</p>",
      "x": 473,
      "y": 526.4285583496094,
      "wires": [
        [
          "3b62b537.c49d4a"
        ]
      ]
    },
    {
      "id": "3bbff2b7.c4400e",
      "type": "inject",
      "z": "474aa5cd.b8b55c",
      "name": "At Startup",
      "topic": "",
      "payload": "",
      "payloadType": "str",
      "repeat": "",
      "crontab": "",
      "once": true,
      "x": 124,
      "y": 368,
      "wires": [
        [
          "be0cd254.41f33"
        ]
      ]
    },
    {
      "id": "be0cd254.41f33",
      "type": "function",
      "z": "474aa5cd.b8b55c",
      "name": "Set-up logging",
      "func": "if (!context.global.logger) {\n    context.global.logger = {\n       _log : [],\n       log : function (logNode, logMsg) {\n           this._log.push(new Date().toString() + \": \" + JSON.stringify(logMsg));\n        \n           if (this._log.length > 10000) {\n               this._log.shift();\n           }\n    \n           msg = {\n               payload : logMsg,\n              node : logNode,\n              topic : logNode.name\n          }\n        \n         logNode.warn(logMsg);\n          node.send(msg);  \n      },\n    \n      getLog : function() {\n          return this._log;\n      }\n    };\n}\n",
      "outputs": 1,
      "noerr": 0,
      "x": 313,
      "y": 368,
      "wires": [
        []
      ]
    },
    {
      "id": "8b7617fa.7489e8",
      "type": "comment",
      "z": "474aa5cd.b8b55c",
      "name": "Tasks run at instance startup",
      "info": "",
      "x": 168,
      "y": 315,
      "wires": []
    },
    {
      "id": "da927227.256d9",
      "type": "function",
      "z": "474aa5cd.b8b55c",
      "name": "Get report data",
      "func": "msg.lastReport = JSON.stringify(context.global.lastReport);\nmsg.log = context.global.logger.getLog();\nreturn msg;",
      "outputs": 1,
      "noerr": 0,
      "x": 289,
      "y": 526,
      "wires": [
        [
          "27d1c8ce.d82e38"
        ]
      ]
    },
    {
      "id": "9920f613.66df08",
      "type": "comment",
      "z": "474aa5cd.b8b55c",
      "name": "Reporting & Logging",
      "info": "",
      "x": 138,
      "y": 482,
      "wires": []
    },
    {
      "id": "f0afb35f.0f505",
      "type": "comment",
      "z": "474aa5cd.b8b55c",
      "name": "This node wil trigger after every log event",
      "info": "",
      "x": 570,
      "y": 369,
      "wires": []
    },
    {
      "id": "9f784653.6087b8",
      "type": "function",
      "z": "474aa5cd.b8b55c",
      "name": "Log results",
      "func": "context.global.logger.log(node, msg.payload);\nreturn msg;",
      "outputs": "0",
      "noerr": 0,
      "x": 805,
      "y": 116,
      "wires": []
    },
    {
      "id": "88c412d7.773bf",
      "type": "function",
      "z": "474aa5cd.b8b55c",
      "name": "Log results",
      "func": "context.global.logger.log(node, msg.payload);\nreturn msg;",
      "outputs": "0",
      "noerr": 0,
      "x": 805,
      "y": 188,
      "wires": []
    },
    {
      "id": "78581b8.f87a7e4",
      "type": "function",
      "z": "474aa5cd.b8b55c",
      "name": "Reset RetailOS Orders Metadata",
      "func": "msg.payload =  {\n    completionDate : \"2015-12-01T16:02:11.878Z\",\n    offset : 0,\n    startDate : null,\n    totalRecords : 0,\n    totalModified : 0\n};\n\nmsg.sourceSystem = 'retailos';\nmsg.object = 'order';\n\nreturn msg;",
      "outputs": 1,
      "noerr": 0,
      "x": 406.6666564941406,
      "y": 271.6666564941406,
      "wires": [
        [
          "262a74b3.d9d58c"
        ]
      ]
    }
  ]
}