{
  "type": "tab",
  "id": "7f8073e4.807f8c",
  "label": "Sheet 1",
  "subflows": [
    "1742d47d.e8bd2c",
    "f040390e.0fbfc8",
    "1742d47d.e8bd2c",
    "1742d47d.e8bd2c",
    "1742d47d.e8bd2c",
    "f040390e.0fbfc8",
    "1742d47d.e8bd2c",
    "1742d47d.e8bd2c",
    "1742d47d.e8bd2c",
    "f040390e.0fbfc8",
    "1742d47d.e8bd2c",
    "1742d47d.e8bd2c"
  ],
  "flow": [
    {
      "id": "63e6bc1a.9c1944",
      "type": "function",
      "z": "7f8073e4.807f8c",
      "name": "Add Customer Config",
      "func": "\nmsg.config.websocket = msg.config.websocket + 'customer';\nmsg.config.assets = msg.config.assets + 'phone-customer-app';\n\nreturn msg;",
      "outputs": 1,
      "noerr": 0,
      "x": 567,
      "y": 103,
      "wires": [
        [
          "fd57e795.02a818"
        ]
      ]
    },
    {
      "id": "e982e26a.167d2",
      "type": "http in",
      "z": "7f8073e4.807f8c",
      "name": "GET customer app",
      "url": "/customer",
      "method": "get",
      "swaggerDoc": "",
      "x": 138,
      "y": 101,
      "wires": [
        [
          "e59f4bd5.1a60b8"
        ]
      ]
    },
    {
      "id": "fd57e795.02a818",
      "type": "template",
      "z": "7f8073e4.807f8c",
      "name": "Customer Screens",
      "field": "payload",
      "format": "handlebars",
      "template": "<div class=\"screen\" id=\"screen-loyalty\">\n    <img src=\"{{{config.assets}}}/loyalty.jpg\" alt=\"loyality\" border=\"0\" />\n    <a style=\"top: 0%; left:0%; width: 100%; height: 100%;\" onclick=\"actions.show('screen-wishlist')\" href=\"#\"></a>\n</div>\n    \n<div class=\"screen\" id=\"screen-wishlist\" style=\"display: none;\">\n    <img src=\"{{{config.assets}}}/wishlist.jpg\" alt=\"wishlist\" border=\"0\" />\n    <a style=\"top: 0%; left:85%; width: 25%; height: 20%;\" onclick=\"actions.triggerAndAlert('requestAssistant', 'A sales assistant is on their way to help')\" href=\"#\"></a>\n</div>\n\n<script>\n    document.currentScreen = document.getElementById(\"screen-loyalty\");\n</script>",
      "x": 785.5,
      "y": 103.5,
      "wires": [
        [
          "6a046d00.95fb94"
        ]
      ]
    },
    {
      "id": "e59f4bd5.1a60b8",
      "type": "subflow:1742d47d.e8bd2c",
      "z": "7f8073e4.807f8c",
      "name": "",
      "x": 350,
      "y": 106,
      "wires": [
        [
          "63e6bc1a.9c1944"
        ]
      ]
    },
    {
      "id": "6a046d00.95fb94",
      "type": "subflow:f040390e.0fbfc8",
      "z": "7f8073e4.807f8c",
      "name": "",
      "x": 1033.250015258789,
      "y": 147.00000190734863,
      "wires": []
    },
    {
      "id": "e4e4dfc7.1b1b2",
      "type": "function",
      "z": "7f8073e4.807f8c",
      "name": "Add Assistant Config",
      "func": "\nmsg.config.websocket = msg.config.websocket + 'assistant';\nmsg.config.assets = msg.config.assets + 'tablet-sales-app';\n\nreturn msg;",
      "outputs": 1,
      "noerr": 0,
      "x": 567,
      "y": 189.75,
      "wires": [
        [
          "8b949f4e.746b6"
        ]
      ]
    },
    {
      "id": "cf22f61b.30dd08",
      "type": "http in",
      "z": "7f8073e4.807f8c",
      "name": "GET assistant app",
      "url": "/assistant",
      "method": "get",
      "swaggerDoc": "",
      "x": 138,
      "y": 187.75,
      "wires": [
        [
          "aa94c1d2.556b4"
        ]
      ]
    },
    {
      "id": "8b949f4e.746b6",
      "type": "template",
      "z": "7f8073e4.807f8c",
      "name": "Assistant Screens",
      "field": "payload",
      "format": "handlebars",
      "template": "<button style=\"top:2%; left:87%; width:10%; height:5%; z-index:10; position:fixed\">Reset</button>\n<button style=\"top:2%; left:75%; width:10%; height:5%; z-index:10; position:fixed\">Screen Cast</button>\n\n<div class=\"screen\" id=\"screen-waiting\">\n    <img src=\"{{{config.assets}}}/waiting.jpg\" alt=\"hub\" border=\"0\" />\n</div>\n\n<div class=\"screen\" id=\"screen-hub\" style=\"display: none;\">\n    <img src=\"{{{config.assets}}}/hub.jpg\" alt=\"hub\" border=\"0\" />\n    <a style=\"top: 0%; left:0%; width: 100%; height: 100%;\" onclick=\"actions.show('screen-customer')\" href=\"#\"></a>\n</div>\n    \n<div class=\"screen\" id=\"screen-customer\" style=\"display: none;\">\n    <img src=\"{{{config.assets}}}/customerRoot.jpg\" border=\"0\" />\n    <a style=\"left: 3.5%; top:55%; width: 24%; height: 40.6%;\" onclick=\"actions.show('screen-product1')\" href=\"#\"></a>\n    <a style=\"left: 27.6%; top:55%; width: 24%; height: 40.6%;\" onclick=\"actions.show('screen-product2')\" href=\"#\"></a>\n    <a style=\"left: 51.75%; top:55%; width: 24%; height: 40.6%;\" onclick=\"actions.show('screen-product3')\" href=\"#\"></a>\n    <a style=\"left: 75.9%; top:55%; width: 24%; height: 40.6%;\" onclick=\"actions.show('screen-product4')\" href=\"#\"></a>\n</div>\n\n<div class=\"screen\" id=\"screen-product1\" style=\"display: none;\">\n    <img src=\"{{{config.assets}}}/customerProduct1.jpg\" border=\"0\" />\n     <a style=\"left: 0%; top:0%; width: 10%; height: 10%;\" onclick=\"actions.show('screen-customer')\" href=\"#\"></a>\n     <a style=\"left: 0%; top:30%; width: 15%; height: 30%;\" onclick=\"actions.showRight('screen-product5')\" href=\"#\"></a>\n     <a style=\"left: 85%; top:30%; width: 15%; height: 30%;\" onclick=\"actions.showLeft('screen-product2')\" href=\"#\"></a>\n</div>\n\n<div class=\"screen\" id=\"screen-product2\" style=\"display: none;\">\n    <img src=\"{{{config.assets}}}/customerProduct2.jpg\" border=\"0\" />\n     <a style=\"left: 0%; top:0%; width: 10%; height: 10%;\" onclick=\"actions.show('screen-customer')\" href=\"#\"></a>\n     <a style=\"left: 0%; top:30%; width: 15%; height: 30%;\" onclick=\"actions.showRight('screen-product1')\" href=\"#\"></a>\n     <a style=\"left: 85%; top:30%; width: 15%; height: 30%;\" onclick=\"actions.showLeft('screen-product3')\" href=\"#\"></a>\n</div>\n\n<div class=\"screen\" id=\"screen-product3\" style=\"display: none;\">\n    <img src=\"{{{config.assets}}}/customerProduct3.jpg\" border=\"0\" />\n     <a style=\"left: 0%; top:0%; width: 10%; height: 10%;\" onclick=\"actions.show('screen-customer')\" href=\"#\"></a>\n     <a style=\"left: 0%; top:30%; width: 15%; height: 30%;\" onclick=\"actions.showRight('screen-product2')\" href=\"#\"></a>\n     <a style=\"left: 85%; top:30%; width: 15%; height: 30%;\" onclick=\"actions.showLeft('screen-product4')\" href=\"#\"></a>\n</div>\n\n<div class=\"screen\" id=\"screen-product4\" style=\"display: none;\">\n    <img src=\"{{{config.assets}}}/customerProduct4.jpg\" border=\"0\" />\n     <a style=\"left: 0%; top:0%; width: 10%; height: 10%;\" onclick=\"actions.show('screen-customer')\" href=\"#\"></a>\n     <a style=\"left: 0%; top:30%; width: 15%; height: 30%;\" onclick=\"actions.showRight('screen-product3')\" href=\"#\"></a>\n     <a style=\"left: 85%; top:30%; width: 15%; height: 30%;\" onclick=\"actions.showLeft('screen-product5')\" href=\"#\"></a>\n</div>\n\n<div class=\"screen\" id=\"screen-product5\" style=\"display: none;\">\n    <img src=\"{{{config.assets}}}/customerProduct5.jpg\" border=\"0\" />\n     <a style=\"left: 0%; top:0%; width: 10%; height: 10%;\" onclick=\"actions.show('screen-customer')\" href=\"#\"></a>\n     <a style=\"left: 0%; top:30%; width: 15%; height: 30%;\" onclick=\"actions.showRight('screen-product4')\" href=\"#\"></a>\n     <a style=\"left: 85%; top:30%; width: 15%; height: 30%;\" onclick=\"actions.showLeft('screen-product1')\" href=\"#\"></a>\n</div>\n\n\n<script>\n    document.currentScreen = document.getElementById(\"screen-waiting\");\n</script>",
      "x": 788.5000114440918,
      "y": 190.25000143051147,
      "wires": [
        [
          "6a046d00.95fb94"
        ]
      ]
    },
    {
      "id": "aa94c1d2.556b4",
      "type": "subflow:1742d47d.e8bd2c",
      "z": "7f8073e4.807f8c",
      "name": "",
      "x": 352,
      "y": 187.75,
      "wires": [
        [
          "e4e4dfc7.1b1b2"
        ]
      ]
    },
    {
      "id": "e9fef8ff.160108",
      "type": "function",
      "z": "7f8073e4.807f8c",
      "name": "Add Store Screen Config",
      "func": "\nmsg.config.websocket = msg.config.websocket + 'screen';\nmsg.config.assets = msg.config.assets + 'tv-floor-display';\nmsg.config.slideshowDelay = 5000;\n\nreturn msg;",
      "outputs": 1,
      "noerr": 0,
      "x": 566,
      "y": 278.5,
      "wires": [
        [
          "b1ae7241.4e519"
        ]
      ]
    },
    {
      "id": "2e11fdec.d1ee02",
      "type": "http in",
      "z": "7f8073e4.807f8c",
      "name": "GET store screen app",
      "url": "/screen",
      "method": "get",
      "swaggerDoc": "",
      "x": 137,
      "y": 276.5,
      "wires": [
        [
          "f970fbe6.068f08"
        ]
      ]
    },
    {
      "id": "b1ae7241.4e519",
      "type": "template",
      "z": "7f8073e4.807f8c",
      "name": "Store Screen Screens",
      "field": "payload",
      "format": "handlebars",
      "template": "<div class=\"screen\" id=\"screen-slideshow\">\n    <img id=\"slideshow1\" src=\"{{{config.assets}}}/slideshow1.png\" alt=\"hub\" border=\"0\" />\n    <img id=\"slideshow2\" src=\"{{{config.assets}}}/slideshow2.png\" alt=\"hub\" border=\"0\" style=\"display: none;\" />\n    <img id=\"slideshow3\" src=\"{{{config.assets}}}/slideshow3.png\" alt=\"hub\" border=\"0\" style=\"display: none;\" />\n    <img id=\"slideshow4\" src=\"{{{config.assets}}}/slideshow4.png\" alt=\"hub\" border=\"0\" style=\"display: none;\" />\n\n</div>\n\n<div class=\"screen\" id=\"screen-products\" style=\"display: none;\">\n    <img id=\"product1\" src=\"{{{config.assets}}}/product-1.png\" alt=\"hub\" border=\"0\" />\n    <img id=\"product2\" src=\"{{{config.assets}}}/product-2.png\" alt=\"hub\" border=\"0\" style=\"display: none;\" />\n    <img id=\"product3\" src=\"{{{config.assets}}}/product-3.png\" alt=\"hub\" border=\"0\" style=\"display: none;\" />\n    <img id=\"product4\" src=\"{{{config.assets}}}/product-4.png\" alt=\"hub\" border=\"0\" style=\"display: none;\" />\n    <img id=\"product5\" src=\"{{{config.assets}}}/product-5.png\" alt=\"hub\" border=\"0\" style=\"display: none;\" />\n    <img id=\"product6\" src=\"{{{config.assets}}}/product-1.png\" alt=\"hub\" border=\"0\" style=\"display: none;\" />\n    <img id=\"product7\" src=\"{{{config.assets}}}/product-2.png\" alt=\"hub\" border=\"0\" style=\"display: none;\" />\n    \n    <div style=\"width:98%; height:40%; position:absolute; overflow-x:scroll; overflow-y:hidden\">\n        <img src=\"{{{config.assets}}}/details-footer.png\" style=\"height:100%; width:auto; position:relative;\">\n    </div>\n</div>\n\n<script>\n    document.currentScreen = document.getElementById(\"screen-slideshow\");\n    \n    document.currentSlide = 1;\n    \n    document.currentProduct = 1;\n    \n    //Show product subview\n    showProduct = function(product) {\n        actions.swap('product' + document.currentProduct, 'product' + product);\n        document.currentProduct = product;\n    };\n    \n    \n    // Automated slideshow\n    setInterval(function() {\n        \n        var slide = document.getElementById(\"slideshow\" + document.currentSlide.toString());\n        slide.style.display = 'none';\n        \n        if (document.currentSlide === 4) { document.currentSlide = 0;}\n        \n        document.currentSlide++;\n        \n        var slide = document.getElementById(\"slideshow\" + document.currentSlide.toString());\n        slide.style.display = 'block';\n      \n    }, {{{config.slideshowDelay}}});\n    \n</script>",
      "x": 787.5000114440918,
      "y": 279.0000014305115,
      "wires": [
        [
          "6a046d00.95fb94"
        ]
      ]
    },
    {
      "id": "f970fbe6.068f08",
      "type": "subflow:1742d47d.e8bd2c",
      "z": "7f8073e4.807f8c",
      "name": "",
      "x": 351,
      "y": 276.5,
      "wires": [
        [
          "e9fef8ff.160108"
        ]
      ]
    }
  ]
}