{
  "id": "ad02822b.52fd8",
  "type": "subflow",
  "name": "Update Customers in All Systems",
  "info": "",
  "in": [
    {
      "x": 46.428565979003906,
      "y": 150.31747245788574,
      "wires": [
        {
          "id": "ce7145eb.318eb8"
        },
        {
          "id": "f2ce0b2.f0d31f8"
        }
      ]
    }
  ],
  "out": [
    {
      "x": 1254.6489944458008,
      "y": 154.52381324768066,
      "wires": [
        {
          "id": "93658698.6c9a78",
          "port": 0
        }
      ]
    }
  ],
  "flow": [
    {
      "id": "a39f1755.5c60e8",
      "type": "function",
      "z": "ad02822b.52fd8",
      "name": "Annonymise Customer Data",
      "func": "for (var i = 0; i < msg.payload.rows.length; i++) {\n    var customer = msg.payload.rows[i];\n    \n    if (customer.email) {\n        customer.email = customer.email.substring(0,4) + 'annonymised@example.com';\n    }\n    \n    if (customer.telephoneNumber) {\n        customer.telephoneNumber = customer.telephoneNumber.substring(0,6) + '000000';\n    }\n    \n    if (customer.lastName) {\n        customer.lastName = customer.lastName.substring(0,1) + '-annoymised';\n    }\n}\n\nreturn msg;",
      "outputs": 1,
      "noerr": 0,
      "x": 666.9406471252441,
      "y": 62.10320448875427,
      "wires": [
        [
          "8f7c06cb.7083f8"
        ]
      ]
    },
    {
      "id": "ef5849d.f10a7b8",
      "type": "subflow:ba098348.45f68",
      "z": "ad02822b.52fd8",
      "name": "",
      "x": 722.3015747070312,
      "y": 147.7857666015625,
      "wires": [
        [
          "a39f1755.5c60e8"
        ],
        [
          "93658698.6c9a78"
        ]
      ]
    },
    {
      "id": "8f7c06cb.7083f8",
      "type": "subflow:28cf561f.d730aa",
      "z": "ad02822b.52fd8",
      "name": "",
      "x": 919.6769561767578,
      "y": 61.54768347740173,
      "wires": [
        [
          "ef5849d.f10a7b8"
        ]
      ]
    },
    {
      "id": "93658698.6c9a78",
      "type": "subflow:d2d468e0.2d2b98",
      "z": "ad02822b.52fd8",
      "name": "",
      "x": 1054.6489944458008,
      "y": 154.52381324768066,
      "wires": [
        []
      ]
    },
    {
      "id": "3adf9497.c5206c",
      "type": "subflow:96781090.6987f",
      "z": "ad02822b.52fd8",
      "name": "",
      "x": 367.0000190734863,
      "y": 150.03176403045654,
      "wires": [
        [
          "ef5849d.f10a7b8"
        ]
      ]
    },
    {
      "id": "ce5f1097.31a0f",
      "type": "catch",
      "z": "ad02822b.52fd8",
      "name": "",
      "scope": null,
      "x": 80.00003814697266,
      "y": 354.28570461273193,
      "wires": [
        [
          "2e36a3f6.d1c95c"
        ]
      ]
    },
    {
      "id": "2e36a3f6.d1c95c",
      "type": "function",
      "z": "ad02822b.52fd8",
      "name": "Store Errors",
      "func": "if (!context.global.errors) {\n    context.global.errors = [];\n}\n\ncontext.global.errors.push(msg);\n\nreturn msg;",
      "outputs": "0",
      "noerr": 0,
      "x": 245.0000457763672,
      "y": 353.73005294799805,
      "wires": []
    },
    {
      "id": "f2ce0b2.f0d31f8",
      "type": "delay",
      "z": "ad02822b.52fd8",
      "name": "",
      "pauseType": "delay",
      "timeout": "1",
      "timeoutUnits": "seconds",
      "rate": "1",
      "rateUnits": "second",
      "randomFirst": "1",
      "randomLast": "5",
      "randomUnits": "seconds",
      "drop": false,
      "x": 174.28572845458984,
      "y": 150.00001335144043,
      "wires": [
        [
          "3adf9497.c5206c"
        ]
      ]
    },
    {
      "id": "ce7145eb.318eb8",
      "type": "function",
      "z": "ad02822b.52fd8",
      "name": "Stop Loop",
      "func": "msg = {};\nmsg.stopSearch = true; \n\nreturn msg;",
      "outputs": 1,
      "noerr": 0,
      "x": 374.28575134277344,
      "y": 222.85716247558594,
      "wires": [
        [
          "ef5849d.f10a7b8"
        ]
      ]
    },
    {
      "id": "30564217.cfa9be",
      "type": "comment",
      "z": "ad02822b.52fd8",
      "name": "Ensure any current loops are stopped before starting new one",
      "info": "",
      "x": 274.28570556640625,
      "y": 252.85715579986572,
      "wires": []
    }
  ]
}