{
  "id": "d2d468e0.2d2b98",
  "type": "subflow",
  "name": "Save End of Sync Info",
  "info": "",
  "in": [
    {
      "x": 49.6824893951416,
      "y": 58.761916160583496,
      "wires": [
        {
          "id": "4c5063c2.b3af9c"
        }
      ]
    }
  ],
  "out": [
    {
      "x": 833.6430587768555,
      "y": 59.285749435424805,
      "wires": [
        {
          "id": "db681e3.f2497e",
          "port": 0
        }
      ]
    }
  ],
  "flow": [
    {
      "id": "4c5063c2.b3af9c",
      "type": "function",
      "z": "d2d468e0.2d2b98",
      "name": "Create Completion Report",
      "func": "\nvar report = {\n    totalRecords : msg.totalResults,\n    totalModified : msg.totalChanges,\n    completionDate : new Date().toISOString(),\n    lastStartDate : msg.searchStart.startDate.toISOString(),\n    startDate : '',\n    offset : 0,\n    source : msg.sourceSystem,\n    destination : msg.destinationSystem,\n    object : msg.syncObject\n};\n\ncontext.global.lastReport = report;\n\nmsg.report = report;\nmsg.payload = report;\n\nreturn msg;",
      "outputs": 1,
      "noerr": 0,
      "x": 216.37683868408203,
      "y": 58.81748580932617,
      "wires": [
        [
          "add254c6.522da8"
        ]
      ]
    },
    {
      "id": "add254c6.522da8",
      "type": "subflow:b2b8b80b.4d4748",
      "z": "d2d468e0.2d2b98",
      "name": "",
      "x": 438.9286117553711,
      "y": 59.428585052490234,
      "wires": [
        [
          "db681e3.f2497e"
        ]
      ]
    },
    {
      "id": "db681e3.f2497e",
      "type": "change",
      "z": "d2d468e0.2d2b98",
      "name": "set to completion report",
      "rules": [
        {
          "t": "set",
          "p": "payload",
          "pt": "msg",
          "to": "report",
          "tot": "msg"
        }
      ],
      "action": "",
      "property": "",
      "from": "",
      "to": "",
      "reg": false,
      "x": 661.2857208251953,
      "y": 59.285715103149414,
      "wires": [
        []
      ]
    }
  ]
}