{
  "type": "tab",
  "id": "e8eb7d60.17148",
  "label": "MikesTestCase",
  "flow": [
    {
      "id": "70a984af.8f567c",
      "type": "inject",
      "z": "e8eb7d60.17148",
      "name": "Poll SQL Database",
      "topic": "",
      "payload": "",
      "payloadType": "str",
      "repeat": "",
      "crontab": "",
      "once": true,
      "x": 199,
      "y": 135,
      "wires": [
        [
          "7b7a7159.84859"
        ]
      ]
    },
    {
      "id": "7b7a7159.84859",
      "type": "function",
      "z": "e8eb7d60.17148",
      "name": "Set Polling Variables",
      "func": "msg.batchSize = 1000;\nmsg.sourceSystem = 'TestSourceDB';\nmsg.destinationSystem = 'TestTargetDB';\nmsg.syncObject = 'SaleItem';\nreturn msg;",
      "outputs": 1,
      "noerr": 0,
      "x": 426,
      "y": 135,
      "wires": [
        [
          "bd8840c.f4277c"
        ]
      ]
    },
    {
      "id": "bd8840c.f4277c",
      "type": "subflow:291b84c3.d6e47c",
      "z": "e8eb7d60.17148",
      "x": 647,
      "y": 135,
      "wires": [
        []
      ]
    }
  ]
}